…
``` r
sim_results_df = 
  expand_grid(
    mu_list = c(1,2,3,4,5,6),
    iter = 1:5000
  ) %>% 
  mutate(
    estimate_df = map(.x = mu_list, ~ sim_mu(mu = .x))
  ) %>% 
  unnest(estimate_df)
sim_results_df
```

    ## # A tibble: 30,000 × 4
    ##    mu_list  iter  mu_hat p_value
    ##      <dbl> <int>   <dbl>   <dbl>
    ##  1       1     1 -0.380   0.751 
    ##  2       1     2  0.518   0.695 
    ##  3       1     3  0.808   0.321 
    ##  4       1     4  0.952   0.260 
    ##  5       1     5  0.187   0.846 
    ##  6       1     6  1.76    0.0646
    ##  7       1     7  1.58    0.0316
    ##  8       1     8  0.752   0.452 
    ##  9       1     9  0.0375  0.966 
    ## 10       1    10  1.79    0.0325
    ## # … with 29,990 more rows
…
